[
    {
        "function": "create",
        "ver": "post",
        "controller": "TokenController"
    },
    {
        "function": "getOne",
        "ver": "get",
        "controller": "TokenController"
    },
    {
        "function": "getAll",
        "ver": "get",
        "controller": "TokenController"
    },
    {
        "function": "getTokensByOwner",
        "ver": "get",
        "controller": "TokenController"
    },
    {
        "function": "getTokenCountByOwner",
        "ver": "get",
        "controller": "TokenController"
    },
    {
        "function": "getTokensByType",
        "ver": "get",
        "controller": "TokenController"
    },
    {
        "function": "transfer",
        "ver": "put",
        "controller": "TokenController"
    },
    {
        "function": "delete",
        "ver": "delete",
        "controller": "TokenController"
    },
    {
        "function": "register",
        "ver": "post",
        "controller": "ParticipantController"
    },
    {
        "function": "get",
        "ver": "get",
        "controller": "ParticipantController"
    },
    {
        "function": "getAll",
        "ver": "get",
        "controller": "ParticipantController"
    }
]